{
  "name": "StatusCheckHybris_Main",
  "description": "Blank Process",
  "main": "MainSequence.xaml",
  "dependencies": {
    "Microsoft.Activities": "[1.0.1]",
    "UiPath.Credentials.Activities": "[2.0.0]",
    "UiPath.Excel.Activities": "[2.10.4]",
    "UiPath.Mail.Activities": "[1.10.5]",
    "UiPath.MicrosoftOffice365.Activities": "[1.11.1]",
    "UiPath.System.Activities": "[21.4.1]",
    "UiPath.UIAutomation.Activities": "[21.4.4]",
    "UiPath.WebAPI.Activities": "[1.7.0]"
  },
  "webServices": [],
  "entitiesStores": [],
  "schemaVersion": "4.0",
  "studioVersion": "21.4.4.0",
  "projectVersion": "1.0.14",
  "runtimeOptions": {
    "autoDispose": false,
    "netFrameworkLazyLoading": false,
    "isPausable": true,
    "isAttended": false,
    "requiresUserInteraction": true,
    "supportsPersistence": false,
    "excludedLoggedData": [
      "Private:*",
      "*password*"
    ],
    "executionType": "Workflow",
    "readyForPiP": false,
    "startsInPiP": false,
    "mustRestoreAllDependencies": false
  },
  "designOptions": {
    "projectProfile": "Developement",
    "outputType": "Process",
    "libraryOptions": {
      "includeOriginalXaml": false,
      "privateWorkflows": []
    },
    "processOptions": {
      "ignoredFiles": []
    },
    "fileInfoCollection": [],
    "modernBehavior": false
  },
  "expressionLanguage": "VisualBasic",
  "entryPoints": [
    {
      "filePath": "MainSequence.xaml",
      "uniqueId": "56e0373c-024b-4f43-9cf8-adc0c7bf0783",
      "input": [],
      "output": []
    }
  ],
  "isTemplate": false,
  "templateProjectData": {},
  "publishData": {},
  "targetFramework": "Legacy"
}